<define-tag pagetitle>DLA-2933-1 firefox-esr</define-tag>
<define-tag report_date>2022-03-07</define-tag>
<define-tag secrefs>CVE-2022-26485 CVE-2022-26486</define-tag>
<define-tag packages>firefox-esr</define-tag>
<define-tag isvulnerable>yes</define-tag>
<define-tag fixed>yes</define-tag>
<define-tag fixed-section>no</define-tag>

#use wml::debian::security

