<define-tag pagetitle>DLA-2921-1 thunderbird</define-tag>
<define-tag report_date>2022-02-14</define-tag>
<define-tag secrefs>CVE-2022-22754 CVE-2022-22756 CVE-2022-22759 CVE-2022-22760 CVE-2022-22761 CVE-2022-22763 CVE-2022-22764</define-tag>
<define-tag packages>thunderbird</define-tag>
<define-tag isvulnerable>yes</define-tag>
<define-tag fixed>yes</define-tag>
<define-tag fixed-section>no</define-tag>

#use wml::debian::security

