<define-tag pagetitle>DLA-2892-1 golang-1.7</define-tag>
<define-tag report_date>2022-01-21</define-tag>
<define-tag secrefs>CVE-2021-33196 CVE-2021-36221 CVE-2021-39293 CVE-2021-41771 CVE-2021-44716 CVE-2021-44717 Bug#989492 Bug#991961</define-tag>
<define-tag packages>golang-1.7</define-tag>
<define-tag isvulnerable>yes</define-tag>
<define-tag fixed>yes</define-tag>
<define-tag fixed-section>no</define-tag>

#use wml::debian::security

