<define-tag pagetitle>DLA-2975-1 openjpeg2</define-tag>
<define-tag report_date>2022-04-10</define-tag>
<define-tag secrefs>CVE-2020-27842 CVE-2020-27843 CVE-2021-29338 CVE-2022-1122</define-tag>
<define-tag packages>openjpeg2</define-tag>
<define-tag isvulnerable>yes</define-tag>
<define-tag fixed>yes</define-tag>
<define-tag fixed-section>no</define-tag>

#use wml::debian::security

