<define-tag pagetitle>DLA-3035-1 libdbi-perl</define-tag>
<define-tag report_date>2022-05-30</define-tag>
<define-tag secrefs>CVE-2014-10402 Bug#972180</define-tag>
<define-tag packages>libdbi-perl</define-tag>
<define-tag isvulnerable>yes</define-tag>
<define-tag fixed>yes</define-tag>
<define-tag fixed-section>no</define-tag>

#use wml::debian::security

