<define-tag pagetitle>DLA-2972-1 libxml2</define-tag>
<define-tag report_date>2022-04-08</define-tag>
<define-tag secrefs>CVE-2016-9318 CVE-2017-5130 CVE-2017-5969 CVE-2017-16932 CVE-2022-23308</define-tag>
<define-tag packages>libxml2</define-tag>
<define-tag isvulnerable>yes</define-tag>
<define-tag fixed>yes</define-tag>
<define-tag fixed-section>no</define-tag>

#use wml::debian::security

