<define-tag pagetitle>DLA-2958-1 usbredir</define-tag>
<define-tag report_date>2022-03-21</define-tag>
<define-tag secrefs>CVE-2021-3700</define-tag>
<define-tag packages>usbredir</define-tag>
<define-tag isvulnerable>yes</define-tag>
<define-tag fixed>yes</define-tag>
<define-tag fixed-section>no</define-tag>

#use wml::debian::security

