<define-tag pagetitle>DLA-2995-1 smarty3</define-tag>
<define-tag report_date>2022-5-05</define-tag>
<define-tag secrefs>CVE-2021-21408 CVE-2021-29454 Bug#1010375</define-tag>
<define-tag packages>smarty3</define-tag>
<define-tag isvulnerable>yes</define-tag>
<define-tag fixed>yes</define-tag>
<define-tag fixed-section>no</define-tag>

#use wml::debian::security

