<define-tag pagetitle>DSA-5023-1 modsecurity-apache</define-tag>
<define-tag report_date>2021-12-18</define-tag>
<define-tag secrefs>CVE-2021-42717</define-tag>
<define-tag packages>modsecurity-apache</define-tag>
<define-tag isvulnerable>yes</define-tag>
<define-tag fixed>yes</define-tag>
<define-tag fixed-section>no</define-tag>

#use wml::debian::security



</dl>
