<define-tag pagetitle>DSA-5001-1 redis</define-tag>
<define-tag report_date>2021-11-05</define-tag>
<define-tag secrefs>CVE-2021-32626 CVE-2021-32627 CVE-2021-32628 CVE-2021-32672 CVE-2021-32675 CVE-2021-32687 CVE-2021-32762 CVE-2021-41099 CVE-2021-32761</define-tag>
<define-tag packages>redis</define-tag>
<define-tag isvulnerable>yes</define-tag>
<define-tag fixed>yes</define-tag>
<define-tag fixed-section>no</define-tag>

#use wml::debian::security



</dl>
