<define-tag pagetitle>DSA-5007-1 postgresql-13</define-tag>
<define-tag report_date>2021-11-11</define-tag>
<define-tag secrefs>CVE-2021-23214 CVE-2021-23222</define-tag>
<define-tag packages>postgresql-13</define-tag>
<define-tag isvulnerable>yes</define-tag>
<define-tag fixed>yes</define-tag>
<define-tag fixed-section>no</define-tag>

#use wml::debian::security



</dl>
