<define-tag pagetitle>DSA-4884-1 ldb</define-tag>
<define-tag report_date>2021-4-02</define-tag>
<define-tag secrefs>CVE-2020-10730 CVE-2020-27840 CVE-2021-20277 Bug#985935 Bug#985936</define-tag>
<define-tag packages>ldb</define-tag>
<define-tag isvulnerable>yes</define-tag>
<define-tag fixed>yes</define-tag>
<define-tag fixed-section>no</define-tag>

#use wml::debian::security



</dl>
