<define-tag pagetitle>DSA-4891-1 tomcat9</define-tag>
<define-tag report_date>2021-4-13</define-tag>
<define-tag secrefs>CVE-2021-25122 CVE-2021-25329</define-tag>
<define-tag packages>tomcat9</define-tag>
<define-tag isvulnerable>yes</define-tag>
<define-tag fixed>yes</define-tag>
<define-tag fixed-section>no</define-tag>

#use wml::debian::security



</dl>
