<define-tag pagetitle>DSA-4757-1 apache2</define-tag>
<define-tag report_date>2020-8-31</define-tag>
<define-tag secrefs>CVE-2020-1927 CVE-2020-1934 CVE-2020-9490 CVE-2020-11984 CVE-2020-11993</define-tag>
<define-tag packages>apache2</define-tag>
<define-tag isvulnerable>yes</define-tag>
<define-tag fixed>yes</define-tag>
<define-tag fixed-section>no</define-tag>

#use wml::debian::security



</dl>
