<define-tag pagetitle>DLA-2872-1 agg</define-tag>
<define-tag report_date>2021-12-31</define-tag>
<define-tag secrefs>CVE-2019-6245 Bug#919322</define-tag>
<define-tag packages>agg</define-tag>
<define-tag isvulnerable>yes</define-tag>
<define-tag fixed>yes</define-tag>
<define-tag fixed-section>no</define-tag>

#use wml::debian::security

