<define-tag pagetitle>DLA-2789-1 squashfs-tools</define-tag>
<define-tag report_date>2021-10-20</define-tag>
<define-tag secrefs>CVE-2021-41072</define-tag>
<define-tag packages>squashfs-tools</define-tag>
<define-tag isvulnerable>yes</define-tag>
<define-tag fixed>yes</define-tag>
<define-tag fixed-section>no</define-tag>

#use wml::debian::security

