<define-tag pagetitle>DLA-2727-1 pyxdg</define-tag>
<define-tag report_date>2021-08-03</define-tag>
<define-tag secrefs>CVE-2019-12761</define-tag>
<define-tag packages>pyxdg</define-tag>
<define-tag isvulnerable>yes</define-tag>
<define-tag fixed>yes</define-tag>
<define-tag fixed-section>no</define-tag>

#use wml::debian::security
