<define-tag pagetitle>DLA-2774-1 openssl1.0</define-tag>
<define-tag report_date>2021-9-30</define-tag>
<define-tag secrefs>CVE-2021-3712</define-tag>
<define-tag packages>openssl1.0</define-tag>
<define-tag isvulnerable>yes</define-tag>
<define-tag fixed>yes</define-tag>
<define-tag fixed-section>no</define-tag>

#use wml::debian::security

