<define-tag pagetitle>DLA-2516-1 gssproxy</define-tag>
<define-tag report_date>2021-01-04</define-tag>
<define-tag secrefs>CVE-2020-12658</define-tag>
<define-tag packages>gssproxy</define-tag>
<define-tag isvulnerable>yes</define-tag>
<define-tag fixed>yes</define-tag>
<define-tag fixed-section>no</define-tag>

#use wml::debian::security
