<define-tag pagetitle>DLA-2580-1 adminer</define-tag>
<define-tag report_date>2021-03-03</define-tag>
<define-tag secrefs>CVE-2021-21311</define-tag>
<define-tag packages>adminer</define-tag>
<define-tag isvulnerable>yes</define-tag>
<define-tag fixed>yes</define-tag>
<define-tag fixed-section>no</define-tag>

#use wml::debian::security

