<define-tag pagetitle>DLA-2710-2 rabbitmq-server</define-tag>
<define-tag report_date>2021-07-26</define-tag>
<define-tag packages>rabbitmq-server</define-tag>
<define-tag isvulnerable>yes</define-tag>
<define-tag fixed>yes</define-tag>
<define-tag fixed-section>no</define-tag>

#use wml::debian::security

