<define-tag pagetitle>DLA-2823-1 salt</define-tag>
<define-tag report_date>2021-11-19</define-tag>
<define-tag secrefs>CVE-2021-21996 Bug#994016</define-tag>
<define-tag packages>salt</define-tag>
<define-tag isvulnerable>yes</define-tag>
<define-tag fixed>yes</define-tag>
<define-tag fixed-section>no</define-tag>

#use wml::debian::security

