<define-tag pagetitle>DLA-2780-1 ruby2.3</define-tag>
<define-tag report_date>2021-10-13</define-tag>
<define-tag secrefs>CVE-2021-31799 CVE-2021-31810 CVE-2021-32066 Bug#990815</define-tag>
<define-tag packages>ruby2.3</define-tag>
<define-tag isvulnerable>yes</define-tag>
<define-tag fixed>yes</define-tag>
<define-tag fixed-section>no</define-tag>

#use wml::debian::security

