<define-tag pagetitle>DLA-2674-1 isc-dhcp</define-tag>
<define-tag report_date>2021-06-03</define-tag>
<define-tag secrefs>CVE-2021-25217 Bug#989157</define-tag>
<define-tag packages>isc-dhcp</define-tag>
<define-tag isvulnerable>yes</define-tag>
<define-tag fixed>yes</define-tag>
<define-tag fixed-section>no</define-tag>

#use wml::debian::security

