<define-tag pagetitle>DLA-2633-1 firefox-esr</define-tag>
<define-tag report_date>2021-04-23</define-tag>
<define-tag secrefs>CVE-2021-23961 CVE-2021-23994 CVE-2021-23995 CVE-2021-23998 CVE-2021-23999 CVE-2021-24002 CVE-2021-29945 CVE-2021-29946</define-tag>
<define-tag packages>firefox-esr</define-tag>
<define-tag isvulnerable>yes</define-tag>
<define-tag fixed>yes</define-tag>
<define-tag fixed-section>no</define-tag>

#use wml::debian::security

