<define-tag pagetitle>DLA-865-1 suricata</define-tag>
<define-tag report_date>2017-3-22</define-tag>
<define-tag secrefs>CVE-2017-7177 Bug##856649</define-tag>
<define-tag packages>suricata</define-tag>
<define-tag isvulnerable>yes</define-tag>
<define-tag fixed>yes</define-tag>
<define-tag fixed-section>no</define-tag>

#use wml::debian::security

