<define-tag pagetitle>DLA-1166-2 tomcat7</define-tag>
<define-tag report_date>2017-11-10</define-tag>
<define-tag secrefs>Bug#881162</define-tag>
<define-tag packages>tomcat7</define-tag>
<define-tag isvulnerable>yes</define-tag>
<define-tag fixed>yes</define-tag>
<define-tag fixed-section>no</define-tag>

#use wml::debian::security

