<define-tag pagetitle>DLA-798-1 pdns</define-tag>
<define-tag report_date>2017-1-25</define-tag>
<define-tag secrefs>CVE-2016-2120 CVE-2016-7068 CVE-2016-7072 CVE-2016-7073 CVE-2016-7074</define-tag>
<define-tag packages>pdns</define-tag>
<define-tag isvulnerable>yes</define-tag>
<define-tag fixed>yes</define-tag>
<define-tag fixed-section>no</define-tag>

#use wml::debian::security

