<define-tag pagetitle>DLA-840-1 libplist</define-tag>
<define-tag report_date>2017-2-28</define-tag>
<define-tag secrefs>CVE-2017-5834 CVE-2017-5835 Bug#854000</define-tag>
<define-tag packages>libplist</define-tag>
<define-tag isvulnerable>yes</define-tag>
<define-tag fixed>yes</define-tag>
<define-tag fixed-section>no</define-tag>

#use wml::debian::security

