<define-tag pagetitle>DLA-1046-1 lucene-solr</define-tag>
<define-tag report_date>2017-7-30</define-tag>
<define-tag secrefs>CVE-2017-3163 Bug#867712</define-tag>
<define-tag packages>lucene-solr</define-tag>
<define-tag isvulnerable>yes</define-tag>
<define-tag fixed>yes</define-tag>
<define-tag fixed-section>no</define-tag>

#use wml::debian::security

