<define-tag pagetitle>DLA-920-1 jasper</define-tag>
<define-tag report_date>2017-4-26</define-tag>
<define-tag secrefs>CVE-2016-9591 CVE-2016-10251</define-tag>
<define-tag packages>jasper</define-tag>
<define-tag isvulnerable>yes</define-tag>
<define-tag fixed>yes</define-tag>
<define-tag fixed-section>no</define-tag>

#use wml::debian::security

