<define-tag pagetitle>DLA-1111-1 weechat</define-tag>
<define-tag report_date>2017-9-26</define-tag>
<define-tag secrefs>CVE-2017-14727 Bug#876553</define-tag>
<define-tag packages>weechat</define-tag>
<define-tag isvulnerable>yes</define-tag>
<define-tag fixed>yes</define-tag>
<define-tag fixed-section>no</define-tag>

#use wml::debian::security

