<define-tag pagetitle>DLA-2463-1 samba</define-tag>
<define-tag report_date>2020-11-22</define-tag>
<define-tag secrefs>CVE-2020-1472 CVE-2020-10704 CVE-2020-10730 CVE-2020-10745 CVE-2020-10760 CVE-2020-14303 CVE-2020-14318 CVE-2020-14323 CVE-2020-14383</define-tag>
<define-tag packages>samba</define-tag>
<define-tag isvulnerable>yes</define-tag>
<define-tag fixed>yes</define-tag>
<define-tag fixed-section>no</define-tag>

#use wml::debian::security

