<define-tag pagetitle>DLA-2214-1 libexif</define-tag>
<define-tag report_date>2020-05-18</define-tag>
<define-tag secrefs>CVE-2016-6328 CVE-2017-7544 CVE-2018-20030 CVE-2020-0093 CVE-2020-12767 Bug##960199 Bug##918730 Bug##876466 Bug##873022</define-tag>
<define-tag packages>libexif</define-tag>
<define-tag isvulnerable>yes</define-tag>
<define-tag fixed>yes</define-tag>
<define-tag fixed-section>no</define-tag>

#use wml::debian::security

