<define-tag pagetitle>DLA-2143-1 slurm-llnl</define-tag>
<define-tag report_date>2020-03-16</define-tag>
<define-tag secrefs>CVE-2019-6438 CVE-2019-12838 Bug#920997 Bug#931880</define-tag>
<define-tag packages>slurm-llnl</define-tag>
<define-tag isvulnerable>yes</define-tag>
<define-tag fixed>yes</define-tag>
<define-tag fixed-section>no</define-tag>

#use wml::debian::security

