<define-tag pagetitle>DLA-2201-1 ntp</define-tag>
<define-tag report_date>2020-05-05</define-tag>
<define-tag secrefs>CVE-2020-11868</define-tag>
<define-tag packages>ntp</define-tag>
<define-tag isvulnerable>yes</define-tag>
<define-tag fixed>yes</define-tag>
<define-tag fixed-section>no</define-tag>

#use wml::debian::security
