<define-tag pagetitle>DLA-2437-1 krb5</define-tag>
<define-tag report_date>2020-11-07</define-tag>
<define-tag secrefs>CVE-2020-28196</define-tag>
<define-tag packages>krb5</define-tag>
<define-tag isvulnerable>yes</define-tag>
<define-tag fixed>yes</define-tag>
<define-tag fixed-section>no</define-tag>

#use wml::debian::security
