<define-tag pagetitle>DLA-2266-1 nss</define-tag>
<define-tag report_date>2020-06-30</define-tag>
<define-tag secrefs>CVE-2020-12399 CVE-2020-12402</define-tag>
<define-tag packages>nss</define-tag>
<define-tag isvulnerable>yes</define-tag>
<define-tag fixed>yes</define-tag>
<define-tag fixed-section>no</define-tag>

#use wml::debian::security

