<define-tag pagetitle>DLA-2157-1 weechat</define-tag>
<define-tag report_date>2020-3-24</define-tag>
<define-tag secrefs>CVE-2020-8955 CVE-2020-9759 CVE-2020-9760</define-tag>
<define-tag packages>weechat</define-tag>
<define-tag isvulnerable>yes</define-tag>
<define-tag fixed>yes</define-tag>
<define-tag fixed-section>no</define-tag>

#use wml::debian::security

