<define-tag pagetitle>DLA-2399-1 packagekit</define-tag>
<define-tag report_date>2020-10-07</define-tag>
<define-tag secrefs>CVE-2020-16121 CVE-2020-16122</define-tag>
<define-tag packages>packagekit</define-tag>
<define-tag isvulnerable>yes</define-tag>
<define-tag fixed>yes</define-tag>
<define-tag fixed-section>no</define-tag>

#use wml::debian::security

