<define-tag pagetitle>DLA-2261-1 php5</define-tag>
<define-tag report_date>2020-6-29</define-tag>
<define-tag secrefs>CVE-2019-11048</define-tag>
<define-tag packages>php5</define-tag>
<define-tag isvulnerable>yes</define-tag>
<define-tag fixed>yes</define-tag>
<define-tag fixed-section>no</define-tag>

#use wml::debian::security

