<define-tag pagetitle>DLA-2462-1 cimg</define-tag>
<define-tag report_date>2020-11-23</define-tag>
<define-tag secrefs>CVE-2020-25693</define-tag>
<define-tag packages>cimg</define-tag>
<define-tag isvulnerable>yes</define-tag>
<define-tag fixed>yes</define-tag>
<define-tag fixed-section>no</define-tag>

#use wml::debian::security

