<define-tag pagetitle>DLA-2133-1 tomcat7</define-tag>
<define-tag report_date>2020-3-4</define-tag>
<define-tag secrefs>CVE-2019-17569 CVE-2020-1935 CVE-2020-1938</define-tag>
<define-tag packages>tomcat7</define-tag>
<define-tag isvulnerable>yes</define-tag>
<define-tag fixed>yes</define-tag>
<define-tag fixed-section>no</define-tag>

#use wml::debian::security

