<define-tag pagetitle>DLA-1534-1 adplug</define-tag>
<define-tag report_date>2018-10-7</define-tag>
<define-tag secrefs>CVE-2018-17825</define-tag>
<define-tag packages>adplug</define-tag>
<define-tag isvulnerable>yes</define-tag>
<define-tag fixed>yes</define-tag>
<define-tag fixed-section>no</define-tag>

#use wml::debian::security

