<define-tag pagetitle>DLA-1608-1 php5</define-tag>
<define-tag report_date>2018-12-17</define-tag>
<define-tag secrefs>CVE-2018-19518 CVE-2018-19935</define-tag>
<define-tag packages>php5</define-tag>
<define-tag isvulnerable>yes</define-tag>
<define-tag fixed>yes</define-tag>
<define-tag fixed-section>no</define-tag>

#use wml::debian::security

