<define-tag pagetitle>DLA-1404-1 lava-server</define-tag>
<define-tag report_date>2018-6-28</define-tag>
<define-tag secrefs>CVE-2018-12564</define-tag>
<define-tag packages>lava-server</define-tag>
<define-tag isvulnerable>yes</define-tag>
<define-tag fixed>yes</define-tag>
<define-tag fixed-section>no</define-tag>

#use wml::debian::security

