<define-tag pagetitle>DLA-1341-1 sdl-image1.2</define-tag>
<define-tag report_date>2018-4-6</define-tag>
<define-tag secrefs>CVE-2017-12122 CVE-2017-14440 CVE-2017-14441 CVE-2017-14442 CVE-2017-14448 CVE-2017-14450</define-tag>
<define-tag packages>sdl-image1.2</define-tag>
<define-tag isvulnerable>yes</define-tag>
<define-tag fixed>yes</define-tag>
<define-tag fixed-section>no</define-tag>

#use wml::debian::security

