<define-tag pagetitle>DLA-1243-1 xbmc</define-tag>
<define-tag report_date>2018-1-16</define-tag>
<define-tag secrefs>CVE-2017-8314 Bug#863230</define-tag>
<define-tag packages>xbmc</define-tag>
<define-tag isvulnerable>yes</define-tag>
<define-tag fixed>yes</define-tag>
<define-tag fixed-section>no</define-tag>

#use wml::debian::security

