<define-tag pagetitle>DLA-1586-1 openssl</define-tag>
<define-tag report_date>2018-11-21</define-tag>
<define-tag secrefs>CVE-2018-0735 CVE-2018-5407</define-tag>
<define-tag packages>openssl</define-tag>
<define-tag isvulnerable>yes</define-tag>
<define-tag fixed>yes</define-tag>
<define-tag fixed-section>no</define-tag>

#use wml::debian::security

