<define-tag pagetitle>DLA-1513-1 openafs</define-tag>
<define-tag report_date>2018-9-21</define-tag>
<define-tag secrefs>CVE-2018-16947 CVE-2018-16948 CVE-2018-16949 Bug#908616</define-tag>
<define-tag packages>openafs</define-tag>
<define-tag isvulnerable>yes</define-tag>
<define-tag fixed>yes</define-tag>
<define-tag fixed-section>no</define-tag>

#use wml::debian::security

