<define-tag pagetitle>DLA-1270-1 xen</define-tag>
<define-tag report_date>2018-2-6</define-tag>
<define-tag secrefs>CVE-2016-9603 CVE-2016-9637 CVE-2017-2620</define-tag>
<define-tag packages>xen</define-tag>
<define-tag isvulnerable>yes</define-tag>
<define-tag fixed>yes</define-tag>
<define-tag fixed-section>no</define-tag>

#use wml::debian::security

