<define-tag pagetitle>DLA-1442-2 mailman</define-tag>
<define-tag report_date>2018-7-27</define-tag>
<define-tag secrefs>Bug#904680</define-tag>
<define-tag packages>mailman</define-tag>
<define-tag isvulnerable>yes</define-tag>
<define-tag fixed>yes</define-tag>
<define-tag fixed-section>no</define-tag>

#use wml::debian::security

