<define-tag pagetitle>DSA-4449-1 ffmpeg</define-tag>
<define-tag report_date>2019-5-22</define-tag>
<define-tag secrefs>CVE-2018-15822 CVE-2018-1999011 CVE-2019-9718 CVE-2019-11338</define-tag>
<define-tag packages>ffmpeg</define-tag>
<define-tag isvulnerable>yes</define-tag>
<define-tag fixed>yes</define-tag>
<define-tag fixed-section>no</define-tag>

#use wml::debian::security



</dl>
