<define-tag pagetitle>DSA-4592-1 mediawiki</define-tag>
<define-tag report_date>2019-12-26</define-tag>
<define-tag secrefs>CVE-2019-19709</define-tag>
<define-tag packages>mediawiki</define-tag>
<define-tag isvulnerable>yes</define-tag>
<define-tag fixed>yes</define-tag>
<define-tag fixed-section>no</define-tag>

#use wml::debian::security



</dl>
