    1	93sam 	Steve McIntyre
    2	aba 	Andreas Barth
    3	abe 	Axel Beckert
    4	abi 	Michael Ablassmeier
    5	aboll 	Andreas Boll
    6	absurd 	Stephan Suerken
    7	achernya 	Alexander Chernyakhovsky
    8	acid 	Julien Danjou
    9	adamm 	Adam Majer
   10	adconrad 	Adam Conrad
   11	adejong 	Arthur de Jong
   12	adn 	Mohammed Adnène Trojette
   13	adrianorg 	Adriano Rafael Gomes
   14	adsb 	Adam D. Barratt
   15	aeb 	Andreas E. Bombe
   16	afif 	Afif Elghraoui
   17	agi 	Alberto Gonzalez Iniesta
   18	agmartin 	Agustín Martín Domingo
   19	agx 	Guido Guenther
   20	ah 	Andreas Henriksson
   21	ahs3 	Al Stone
   22	aigarius 	Aigars Mahinovs
   23	ajmitch 	Andrew Mitchell
   24	ajqlee 	Andrew Lee
   25	ajt 	Anthony Towns
   26	akira 	Akira Yamada
   27	akumar 	Kumar Appaiah
   28	alejandro 	Alejandro Garrido Mota
   29	alessio 	Alessio Treglia
   30	alex 	Alexander List
   31	alexm 	Alex Muntada
   32	alexp 	Alex Pennace
   33	alfs 	Stefan Alfredsson
   34	algernon 	Gergely Nagy
   35	alteholz 	Thorsten Alteholz
   36	amacater 	Andrew Martin Adrian Cater
   37	amaya 	Amaya Rodrigo Sastre
   38	ametzler 	Andreas Metzler
   39	ana 	Ana Beatriz Guerrero López
   40	anarcat 	Antoine Beaupré
   41	anbe 	Andreas Beckmann
   42	andi 	Andreas B. Mundt
   43	andree 	Andree Leidenfrost
   44	andrelop 	Andre Luis Lopes
   45	andrewsh 	Andrew Shadura
   46	anfra 	Andreas Franzen
   47	angdraug 	Dmitry Borodaenko
   48	angel 	Angel Abad
   49	anibal 	Anibal Monsalve Salazar
   50	anoe 	Alexandre Delanoë
   51	ansgar 	Ansgar Burchardt
   52	antonio 	Antonio Radici
   53	apo 	Markus Koschany
   54	apoikos 	Apollon Oikonomopoulos
   55	apollock 	Andrew Pollock
   56	apw 	Amos Waterland
   57	aquette 	Arnaud Quette
   58	ar 	Yasuhiro Araki
   59	ardo 	Ardo van Rangelrooij
   60	ari 	Ari Pollak
   61	arjan 	Arjan Oosting
   62	arnau 	Arnaud Fontaine
   63	arno 	Arno Töll
   64	aroldan 	Andrés Roldán
   65	aron 	Aron Xu
   66	arthurliu 	Obey Arthur Liu
   67	arturo 	Arturo Borrero González
   68	asac 	Alexander Sack
   69	asb 	Andrew Starr-Bochicchio
   70	ash 	Albert Huang
   71	asias 	Asias He
   72	aurel32 	Aurelien Jarno
   73	aviau 	Alexandre Viau
   74	avtobiff 	Per Andersson
   75	awm 	Andrew McMillan
   76	awoodland 	Alan Woodland
   77	az 	Alexander Zangerl
   78	azekulic 	Alen Zekulic
   79	bab 	Ben Burton
   80	bahner 	Lars Bahner
   81	balasankarc 	Balasankar Chelamattathu
   82	ballombe 	Bill Allombert
   83	bam 	Brian May
   84	bame 	Paul D. Bame
   85	baozich 	Chen Baozi
   86	bap 	Barak A. Pearlmutter
   87	barbier 	Denis Barbier
   88	barry 	Barry Warsaw
   89	bartm 	Bart Martens
   90	bas 	Bas Zoetekouw
   91	bayle 	Christian Bayle
   92	bbaren 	Benjamin Barenblat
   93	bcwhite 	Brian White
   94	bdale 	Bdale Garbee
   95	bdefreese 	Barry deFreese
   96	bdrung 	Benjamin Drung
   97	ben 	Benjamin Mesing
   98	bencer 	Jorge Salamero Sanz
   99	bengen 	Hilko Bengen
  100	benh 	Ben Hutchings
  101	bernat 	Vincent Bernat
  102	berni 	Bernhard Schmidt
  103	berto 	Alberto Garcia
  104	bertol 	Nicolas Bertolissio
  105	beuc 	Sylvain Beucler
  106	bg66 	Akira Ohashi
  107	bgoglin 	Brice Goglin
  108	bgupta 	Brian Gupta
  109	biebl 	Michael Biebl
  110	bigeasy 	Sebastian Andrzej Siewior
  111	bignose 	Ben Finney
  112	bigon 	Laurent Bigonville
  113	blackxored 	Adrian Perez
  114	blade 	Eduard Bloch
  115	blarson 	Robert Alan Larson
  116	bluca 	Luca Boccassi
  117	bmarc 	Bertrand Marc
  118	bod 	Brendan O'Dea
  119	bootc 	Chris Boot
  120	bossekr 	Raphael Bossek
  121	bottoms 	Maitland Bottoms
  122	boutil 	Cédric Boutillier
  123	bpellin 	Brian Pellin
  124	brad 	Bradley Bosch
  125	branden 	Branden Robinson
  126	bremner 	David Bremner
  127	brianr 	Brian Ristuccia
  128	brlink 	Bernhard R. Link
  129	broonie 	Mark Brown
  130	brother 	Martin Bagge
  131	bs 	Bernd Schumacher
  132	bubulle 	Christian Perrier
  133	bunk 	Adrian Bunk
  134	bureado 	Jose Parrella
  135	bzed 	Bernd Zeimetz
  136	calculus 	Jerome Georges Benoit
  137	calhariz 	Jose M. Calhariz
  138	camm 	Camm Maguire
  139	camrdale 	Cameron Dale
  140	capriott 	Andrea Capriotti
  141	carnil 	Salvatore Bonaccorso
  142	caroll 	Ana Carolina Comandulli
  143	carsten 	Carsten Hey
  144	cas 	Craig Sanders
  145	cascardo 	Thadeu Cascardo
  146	cate 	Giacomo Catenazzi
  147	cavedon 	Ludovico Cavedon
  148	cavok 	Domenico Andreoli
  149	cbiedl 	Christoph Biedl
  150	ccheney 	Christopher L. Cheney
  151	cech 	Petr Cech
  152	cedric 	Cédric Delfosse
  153	certik 	Ondřej Čertík
  154	cespedes 	Juan Cespedes
  155	chaica 	Carl Chenet
  156	chrisb 	Chris Butler
  157	chrish 	Christian Hudon
  158	chrism 	Christoph Martin
  159	christine 	Christine Christine Spang
  160	christoph 	Christoph Egger
  161	chrisvdb 	Chris Vanden Berghe
  162	cjwatson 	Colin Watson
  163	ckk 	Christian Kastner
  164	cklin 	Chuan-kai Lin
  165	claviola 	Carlos Laviola
  166	cleto 	Cleto Martín Angelina
  167	clint 	Clint Adams
  168	clown 	Alexei Nikolov
  169	cmb 	Chris Boyle
  170	cmc 	Claire Connelly
  171	cnanakos 	Chrysostomos Nanakos
  172	codehelp 	Neil Williams
  173	colint 	Colin Tuckley
  174	cord 	Cord Beermann
  175	corsac 	Yves-Alexis Perez
  176	costela 	Leo Costela
  177	cowboy 	Richard A. Nelson
  178	cristian 	Cristian Greco
  179	csmall 	Craig Small
  180	ctaylor 	Christopher Taylor
  181	ctrochalakis 	Christos Trochalakis
  182	cts 	Christian T. Steigies
  183	cupis 	Paul Cupis
  184	curan 	Kai Wasserbäch
  185	cworth 	Carl Worth
  186	cwryu 	Changwoo Ryu
  187	cyb 	Cyril Bouthors
  188	czchen 	ChangZhuo Chen
  189	daf 	Dafydd Harries
  190	dai 	Daisuke Higuchi
  191	daigo 	Daigo Moriwaki
  192	dajobe 	Dave Beckett
  193	danai 	Danai Sae-Han
  194	dancer 	Junichi Uekawa
  195	danchev 	George Danchev
  196	dannf 	Dann Frazier
  197	dapal 	David Paleino
  198	darek 	Dariusz Dwornikowski
  199	dato 	Dato Simó
  200	dave 	Dave Holland
  201	davidc 	David L. Coe
  202	dbugger 	Dennis L. Clark
  203	debacle 	Wolfgang Borgert
  204	debalance 	Philipp Huebner
  205	decklin 	Decklin Foster
  206	deek 	Jeff Teunissen
  207	deepak 	Deepak Tripathi
  208	delaunay 	Eric Delaunay
  209	dererk 	Ulises Vitulli
  210	devin 	Devin Carraway
  211	dexter 	Piotr Roszatycki
  212	diane 	Diane Trout
  213	dilinger 	Andres Salomon
  214	dima 	Dima Barsky
  215	diocles 	Tim Retout
  216	directhex 	Jo Shields
  217	dirson 	Yann Dirson
  218	djpig 	Frank Lichtenheld
  219	dkg 	Daniel Kahn Gillmor
  220	dkogan 	Dima Kogan
  221	dktrkranz 	Luca Falavigna
  222	dlange 	Daniel Lange
  223	dld 	Drake Diedrich
  224	dlehn 	David I. Lehn
  225	dleidert 	Daniel Leidert
  226	dmartin 	Dale Martin
  227	dmn 	Damyan Ivanov
  228	dnusinow 	David Nusinow
  229	dod 	Dominique Dumont
  230	dogsleg 	Lev Lamberov
  231	doko 	Matthias Klose
  232	dom 	Dominic Hargreaves
  233	domibel 	Dominique Belhachemi
  234	don 	Don Armstrong
  235	donald 	Donald Norwood
  236	donkult 	David Kalnischkies
  237	dopey 	Matt Hope
  238	dottedmag 	Mikhail Gusarov
  239	dparsons 	Drew Parsons
  240	drazzib 	Damien Raude-Morvan
  241	dreamind 	Stefan Pfetzing
  242	dsilvers 	Daniel Silverstone
  243	duck 	Marc Dequènes
  244	dwatson 	David Watson
  245	dz 	Massimo Dal Zotto
  246	ean 	Ean Schuessler
  247	ebourg 	Emmanuel Bourg
  248	ed 	Ed Boraas
  249	edd 	Dirk Eddelbuettel
  250	edelhard 	Edelhard Becker
  251	edmonds 	Robert Edmonds
  252	edward 	Edward John Betts
  253	eevans 	Eric Evans
  254	ehashman 	Elana Hashman
  255	eichin 	Mark Eichin
  256	eighthave 	Hans-Christoph Steiner
  257	eike 	Eike Sauer
  258	elbrus 	Paul Mathijs Gevers
  259	elf 	Marc Singer
  260	ellert 	Mattias Ellert
  261	eloy 	Krzysztof Krzyzaniak
  262	ema 	Emanuele Rocca
  263	emfox 	Emfox Zhou
  264	enrico 	Enrico Zini
  265	eppesuig 	Giuseppe Sacco
  266	eriberto 	Joao Eriberto Mota Filho
  267	eric 	Eric Dorland
  268	erich 	Erich Schubert
  269	erik 	Erik Wenzel
  270	eriks 	Erik Schanze
  271	erinn 	Erinn Clark
  272	etbe 	Russell Coker
  273	etobi 	Tobias Grimm
  274	eugen 	Eugeniy Meshcheryakov
  275	eugene 	Eugene Zhukov
  276	evgeni 	Evgeni Golov
  277	evo 	Davide Puricelli
  278	fabbe 	Fabian Fagerholm
  279	fabian 	Fabian Greffrath
  280	fabo 	Fathi Boudra
  281	falk 	Falk Hueffner
  282	faw 	Felipe Augusto van de Wiel
  283	federico 	Federico Ceratto
  284	fenio 	Bartosz Fenski
  285	fgeyer 	Felix Geyer
  286	fh 	Florian Hinzmann
  287	filippo 	Filippo Giunchedi
  288	fladi 	Michael Fladischer
  289	flo 	Florian Lohoff
  290	florian 	Florian Ernst
  291	fog 	Federico Di Gregorio
  292	foka 	Anthony Fok
  293	formorer 	Alexander Wirt
  294	fourdollars 	Shih-Yuan Lee
  295	fourmond 	Vincent Fourmond
  296	fpeters 	Frederic Peters
  297	franam 	Francesco Namuri
  298	francisco 	Francisco Manuel García Claramonte
  299	francois 	Francois Marier
  300	frank 	Frank Küster
  301	frankie 	Francesco Lovergine
  302	frediz 	Frédéric Bonnard
  303	freee 	Free Ekanayaka
  304	fs 	Frederik Schüler
  305	fsateler 	Felipe Sateler
  306	fsfs 	Florian Schlichting
  307	fuddl 	Bruno Kleinert
  308	fuji 	Peter Kelemen
  309	fw 	Florian Weimer
  310	garabik 	Radovan Garabik
  311	garden 	Ludovico Gardenghi
  312	gareuselesinge 	Enrico Tassi
  313	gaudenz 	Gaudenz Steinlin
  314	gcs 	László Böszörményi
  315	geissert 	Raphael Geissert
  316	genannt 	Jonas Genannt
  317	georgesk 	Georges Khaznadar
  318	gewo 	Gert Wollny
  319	gfa 	Gustavo Panizzo
  320	ghe 	Juan Gregorio Hernando Rivero
  321	ghedo 	Alessandro Ghedini
  322	ghostbar 	Jose Luis Rivas Contreras
  323	ginggs 	Graham Inggs
  324	gio 	Giovanni Mascellani
  325	giovani 	Giovani Augusto Ferreira
  326	giskard 	Riccardo Setti
  327	gismo 	Luca Capello
  328	gladk 	Anton Gladky
  329	glandium 	Mike Hommey
  330	glaubitz 	John Paul Adrian Glaubitz
  331	glaweh 	Henning Glawe
  332	gleydson 	Gleydson Mazioli da Silva
  333	glondu 	Stéphane Glondu
  334	gniibe 	NIIBE Yutaka
  335	godisch 	Martin A. Godisch
  336	goedson 	Goedson Teixeira Paixao
  337	goneri 	Gonéri Le Bouder
  338	gotom 	Masanori Goto
  339	gq 	Alexander GQ Gerasiov
  340	grantma 	Matthew Grant
  341	gregoa 	Gregor Herrmann
  342	greuff 	Thomas Wana
  343	gris 	Christoph Göhre
  344	grisu 	Michael Bramer
  345	guilhem 	Guilhem Moulin
  346	guillem 	Guillem Jover
  347	guoliang 	Liang Guo
  348	gus 	Angus Lees
  349	gusnan 	Andreas Rönnquist
  350	guus 	Guus Sliepen
  351	gwolf 	Gunnar Wolf
  352	haas 	Christoph Haas
  353	hakan 	Hakan Ardo
  354	hallon 	Fredrik Hallenberg
  355	halls 	Chris Halls
  356	harmoney 	Patty Langasek
  357	harshula 	Harshula Jayasuriya
  358	hartmans 	Sam Hartman
  359	hazelsct 	Adam Powell
  360	hecker 	Richard Hecker
  361	hector 	Hector Garcia
  362	hefee 	Sandro Knauß
  363	helen 	Helen Faulkner
  364	helmutg 	Helmut Grohne
  365	henrich 	Hideki Yamane
  366	hertzog 	Raphaël Hertzog
  367	hle 	Hugo Lefeuvre
  368	hlieberman 	Harlan Lieberman-Berg
  369	hmh 	Henrique de Moraes Holschuh
  370	hoexter 	Sven Hoexter
  371	holger 	Holger Levsen
  372	holgerw 	Holger Wansing
  373	holmgren 	Magnus Holmgren
  374	honey 	Lukasz Jachowicz
  375	horms 	Simon Horman
  376	hpfn 	Herbert Parentes Fortes Neto
  377	hsteoh 	Hwei Sheng Teoh
  378	hug 	Philipp Hug
  379	hvhaugwitz 	Hannes von Haugwitz
  380	hyperair 	Loong Jin Chow
  381	iamfuzz 	Brian Thomason
  382	ianb 	Ian Beckwith
  383	ianw 	Ian Wienand
  384	ijc 	Ian James Campbell
  385	iko 	Anders Hammarquist
  386	iliastsi 	Ilias Tsitsimpis
  387	infinity0 	Ximin Luo
  388	intrigeri 	- Intrigeri
  389	irl 	Iain R. Learmonth
  390	ishikawa 	Mutsumi Ishikawa
  391	iuculano 	Giuseppe Iuculano
  392	iustin 	Iustin Pop
  393	ivan 	Ivan Kohler
  394	ivodd 	Ivo De Decker
  395	iwamatsu 	Nobuhiro Iwamatsu
  396	iwj 	Ian Jackson
  397	jab 	Jeff Breidenbach
  398	jackyf 	Eugene V. Lyubimkin
  399	jaime 	Jaime Robles
  400	jak 	Julian Andres Klode
  401	jaldhar 	Jaldhar H. Vyas
  402	jamespage 	James Downing Page
  403	jamessan 	James McCoy
  404	jamuraa 	Michael Janssen
  405	jan 	Jan Niehusmann
  406	jandd 	Jan Dittberner
  407	janos 	Janos Guljas
  408	jaq 	Jamie Wilkinson
  409	jaqque 	John H. IV Robinson
  410	jas 	Simon Josefsson
  411	jason 	Jason Thomas
  412	jaybonci 	Jay Bonci
  413	jbelmonte 	John V. Belmonte
  414	jbernard 	Jon Bernard
  415	jbicha 	Jeremy Bicha
  416	jbouse 	Jeremy Bouse
  417	jcc 	Jonathan Cristopher Carter
  418	jcorbier 	Jérémie Corbier
  419	jcowgill 	James Cowgill
  420	jcristau 	Julien Cristau
  421	jdg 	Julian Gilbey
  422	jeb 	James Bromberger
  423	jeffity 	Lisa Baron
  424	jelmer 	Jelmer Vernooij
  425	jeroen 	Jeroen van Wolffelaar
  426	jewel 	John Leuner
  427	jfs 	Javier Fernandez-Sanguino Peña
  428	jgoerzen 	John Goerzen
  429	jh 	Jörgen Hägg
  430	jhr 	Jan Hauke Rahm
  431	jimmy 	Jimmy Kaplowitz
  432	jjr 	Jeffrey Ratcliffe
  433	jlines 	John Lines
  434	jluebbe 	Jan Lübbe
  435	jmarler 	Jonathan Marler
  436	jmaslibre 	Josué Abarca
  437	jmm 	Moritz Muehlenhoff
  438	jmtd 	Jonathan Dowland
  439	jmw 	Jonathan Wiltshire
  440	jodal 	Stein Magnus Jodal
  441	joel 	Joel Rosdahl
  442	joerg 	Joerg Jaspert
  443	joey 	Martin Schulze
  444	johfel 	Johann Felix Soden
  445	johnf 	John Francesco Ferlito
  446	johns 	John Sullivan
  447	jon 	Jonathan Oxer
  448	jonny 	Jonny Lamb
  449	joostvb 	Joost van Baal
  450	jordi 	Jordi Mallach
  451	josch 	Johannes Schauer
  452	josem 	Jose M. Moya
  453	joshk 	Joshua Kwan
  454	joss 	Josselin Mouette
  455	josue 	Josué Ortega
  456	joussen 	Mario Joussen
  457	joy 	Josip Rodin
  458	jpuydt 	Julien Puydt
  459	jredrejo 	José L. Redrejo Rodríguez
  460	jrnieder 	Jonathan Nieder
  461	jrtc27 	James Clarke
  462	js 	Jonas Smedegaard
  463	jspricke 	Jochen Sprickerhof
  464	jsw 	John Wright
  465	jule 	Juliane Friederike Holzt
  466	julian 	Julián Moreno Patiño
  467	jwilk 	Jakub Wilk
  468	kaare 	Kåre Thor Olsen
  469	kamal 	Kamal Mostafa
  470	kamop 	Atsushi Kamoshida
  471	kanashiro 	Lucas Kanashiro
  472	kaol 	Kari Pahula
  473	kaplan 	Lior Kaplan
  474	kapouer 	Jérémy Lal
  475	karen 	Karen M Sandler
  476	kartik 	Kartik Mistry
  477	kcoyner 	Kevin Coyner
  478	kcr 	Karl Ramm
  479	kees 	Kees Cook
  480	keithp 	Keith Packard
  481	kelbert 	Jean-Michel Kelbert
  482	keybuk 	Scott James Remnant
  483	khalid 	Khalid Aziz
  484	kibi 	Cyril Brulebois
  485	kilian 	Kilian Krause
  486	kilobyte 	Adam Borowski
  487	kitame 	Takuo KITAME
  488	kitterman 	Scott Kitterman
  489	klee 	Klee Dienes
  490	kmr 	Kevin M. Rosenberg
  491	kmuto 	Kenshi Muto
  492	knok 	Takatsugu Nokubi
  493	kobold 	Fabio Tranchitella
  494	kolter 	Emmanuel Bouthenot
  495	koster 	Kanru Chen
  496	kov 	Gustavo Noronha
  497	kraai 	Matt Kraai
  498	krait 	Christopher Knadle
  499	krala 	Antonin Kral
  500	kreckel 	Richard Kreckel
  501	kritzefitz 	Sven Bartscher
  502	kroeckx 	Kurt Roeckx
  503	kula 	Marcin Kulisz
  504	lamby 	Chris Lamb
  505	lamont 	Lamont Jones
  506	laney 	Iain Lane
  507	lange 	Thomas Lange
  508	larjona 	Laura Arjona Reina
  509	lars 	Lars Wirzenius
  510	lavamind 	Jerome Charaoui
  511	lawrencc 	Christopher Lawrence
  512	lazyfrosch 	Markus Frosch
  513	lbrenta 	Ludovic Brenta
  514	ldrolez 	Ludovic Drolez
  515	leatherface 	Julien Patriarca
  516	leist 	Yven Johannes Leist
  517	leitao 	Breno Leitao
  518	lenharo 	Daniel Lenharo de Souza
  519	leo 	Carsten Leonhardt
  520	lfaraone 	Luke Faraone
  521	lfilipoz 	Luca Filipozzi
  522	lightsey 	John Lightsey
  523	liiwi 	Jaakko Niemi
  524	lindi 	Timo Juhani Lindfors
  525	lingnau 	Anselm Lingnau
  526	lintux 	Wilmer van der Gaast
  527	lisandro 	Lisandro Damián Nicanor Pérez Meyer
  528	ljlane 	Laurence Lane
  529	lkajan 	Laszlo Kajan
  530	lmamane 	Lionel Elie Mamane
  531	locutusofborg 	Gianfranco Costamagna
  532	lohner 	Nils Boeffel
  533	loic 	Loic Dachary
  534	lolando 	Roland Mas
  535	lool 	Loïc Minier
  536	lopippo 	Filippo Rusconi
  537	lucab 	Luca Bruno
  538	lucas 	Lucas Nussbaum
  539	luciano 	Luciano Bello
  540	luigi 	Luigi Gangitano
  541	luk 	Luk Claes
  542	lunar 	Jérémy Bobbio
  543	lutin 	Albin Tonnerre
  544	ma 	Martin Albert
  545	maarten 	Maarten Bernardus Lankhorst
  546	mace 	Miah Gregory
  547	madamezou 	Francesca Ciceri
  548	madduck 	Martin F. Krafft
  549	madhack 	Mike Markley
  550	madkiss 	Martin Loschwitz
  551	maehara 	Keita Maehara
  552	mafm 	Manuel A. Fernandez Montecelo
  553	mak 	Matthias Klumpp
  554	mako 	Benjamin Hill
  555	maks 	Maximilian Attems
  556	malat 	Mathieu Malaterre
  557	malattia 	Mattia Dongili
  558	malex 	Oleksandr V. Moskalenko
  559	mans0954 	Christopher Stuart Hoskin
  560	manty 	Santiago Garcia Mantinan
  561	manu 	Emmanuel Kasper Kasprzyk
  562	manuel 	Manuel Prinz
  563	mapache 	Eduardo Trápani
  564	marga 	Margarita Manterola
  565	marillat 	Christian Marillat
  566	mario 	Mario Iseli
  567	markos 	Konstantinos Margaritis
  568	marks 	Mark Shuttleworth
  569	markus 	Markus Wanner
  570	maswan 	Mattias Wadenstein
  571	matrix 	Francois Gurin
  572	mattb 	Matthew Brown
  573	matthew 	Matthew Vernon
  574	matthieucan 	Matthieu Caneill
  575	matthijs 	Matthijs Möhlmann
  576	mattia 	Mattia Rizzolo
  577	mattice 	Michael D. Mattice
  578	maxx 	Martin Wuertele
  579	maxy 	Maximiliano Curia
  580	mazen 	Mazen Neifer
  581	mbanck 	Michael Banck
  582	mbehrle 	Mathias Behrle
  583	mbuck 	Martin Buck
  584	mckinstry 	Alastair McKinstry
  585	md 	Marco d'Itri
  586	mdj 	Mikael Djurfeldt
  587	mdz 	Matt Zimmerman
  588	mechanix 	Filip Van Raemdonck
  589	mechtilde 	Mechtilde Stehmann
  590	meebey 	Mirco Bauer
  591	mehdi 	Mehdi Dogguy
  592	mejo 	Jonas Meurer
  593	mendoza 	Cesar Mendoza
  594	mennucc1 	Andrea Mennucci
  595	merker 	Karsten Merker
  596	meskes 	Michael Meskes
  597	mestia 	Alexandre Mestiashvili
  598	metal 	Marcelo Jorge Vieira
  599	meyering 	Jim Meyering
  600	mez 	Martin Meredith
  601	mfurr 	Mike Furr
  602	mfv 	Matteo F. Vescovi
  603	mgilbert 	Michael Gilbert
  604	mhatta 	Masayuki Hatta
  605	mhy 	Mark Hymers
  606	micah 	Micah Anderson
  607	micha 	Micha Lenk
  608	michi 	Michael Schutte
  609	midget 	Dario Minnucci
  610	mih 	Michael Hanke
  611	mika 	Michael Prokop
  612	milan 	Milan Kupcevic
  613	miquels 	Miquel van Smoorenburg
  614	miriam 	Miriam Ruiz
  615	mithrandi 	Tristan Seligmann
  616	mitya57 	Dmitry Shachnev
  617	mjb 	Michael Beattie
  618	mjeanson 	Michael Jeanson
  619	mjr 	M J Ray
  620	mjt 	Michael Tokarev
  621	mlt 	Marcela Tiznado
  622	mmind 	Heiko Stübner
  623	mnencia 	Marco Nenciarini
  624	mnordstr 	Mattias Nordstrom
  625	modax 	Modestas Vainius
  626	moeller 	Steffen Möller
  627	mones 	Ricardo Mones Lastra
  628	monga 	Mattia Monga
  629	monica 	Mònica Ramírez Arceda
  630	moray 	Moray Allan
  631	morimura 	Teruyuki Morimura
  632	morph 	Sandro Tosi
  633	mpalmer 	Matthew Palmer
  634	mpitt 	Martin Pitt
  635	mquinson 	Martin Quinson
  636	mrd 	Matthew Danish
  637	ms 	Michael Schiansky
  638	msameer 	Mohammed Sameer
  639	msp 	Mark Purcell
  640	mstone 	Michael Stone
  641	mt 	Michael Tautschnig
  642	mtecknology 	Michael Lustfield
  643	mtmiller 	Mike Miller
  644	muammar 	Muammar El Khatib
  645	murat 	Murat Demirten
  646	mvb 	Martijn van Brummelen
  647	mvo 	Michael Vogt
  648	mwhudson 	Michael Hudson-Doyle
  649	myon 	Christoph Berg
  650	naoliv 	Nelson A. de Oliveira
  651	nas 	Neil A. Schemenauer
  652	nathans 	Nathan Scott
  653	nattie 	Nattie Mayer-Hutchings
  654	natureshadow 	Dominik George
  655	nboullis 	Nicolas Boullis
  656	nbreen 	Nicholas Breen
  657	neil 	Neil L. Roeth
  658	neilm 	Neil McGovern
  659	netzwurm 	David Spreen
  660	neutrons 	Neutron Soutmun
  661	nhandler 	Nathaniel Harrison Handler
  662	nicolas 	Nicolas Boulenguez
  663	nijel 	Michal Cihar
  664	nion 	Nico Golde
  665	nirgal 	Jean-Michel Vourgère
  666	noahm 	Noah Meyerhans
  667	nobse 	Norbert Tretkowski
  668	noel 	Noèl Köthe
  669	nomadium 	Miguel Landaeta
  670	nomeata 	Joachim Breitner
  671	noodles 	Jonathan McDowell
  672	noshiro 	Shigeo Noshiro
  673	nthykier 	Niels Thykier
  674	ntyni 	Niko Tyni
  675	nveber 	Norbert Veber
  676	nwp 	Nick Phillips
  677	obergix 	Olivier Berger
  678	ocsi 	Lenart Janos
  679	odyx 	Didier Raboud
  680	ogi 	Ognyan Kulev
  681	ohura 	Makoto OHURA
  682	olasd 	Nicolas Dandrimont
  683	olebole 	Ole Streicher
  684	oliva 	Gennaro Oliva
  685	olly 	Olly Betts
  686	omote 	Masahito Omote
  687	ondrej 	Ondrej Sury
  688	onlyjob 	Dmitry Smirnov
  689	onovy 	Ondřej Nový
  690	oohara 	Yuuma Oohara
  691	opal 	Ola Lundqvist
  692	osallou 	Olivier Sallou
  693	osamu 	Osamu Aoki
  694	otto 	Otto Kekäläinen
  695	ovek 	Ove Kåven
  696	p2 	Peter De Schrijver
  697	pabs 	Paul Wise
  698	pape 	Gerrit Pape
  699	paravoid 	Faidon Liambotis
  700	pasc 	Pascal Hakim
  701	patryk 	Patryk Cisek
  702	paul 	Paul Slootman
  703	paulliu 	Ying-Chun Liu
  704	paulproteus 	Asheesh Laroia
  705	paultag 	Paul Richards Tagliamonte
  706	paulvt 	Paul van Tilburg
  707	paulwaite 	Paul Waite
  708	pdm 	Milan Zamazal
  709	peloy 	Eloy A. Paris
  710	pere 	Petter Reinholdtsen
  711	periapt 	Nicholas Bamber
  712	petere 	Peter Eisentraut
  713	pfaffben 	Ben Pfaff
  714	philh 	Philip Hands
  715	philipp 	Philipp Benner
  716	picca 	Frédéric-Emmanuel Picca
  717	piefel 	Michael Piefel
  718	piem 	Paul Brossier
  719	pik 	Paul Cannon
  720	pini 	Gilles Filippini
  721	pino 	Pino Toscano
  722	piotr 	Piotr Ożarowski
  723	pjb 	Phil Brooke
  724	pkern 	Philipp Kern
  725	plessy 	Charles Plessy
  726	plugwash 	Peter Michael Green
  727	pm 	Paul Martin
  728	pmatthaei 	Patrick Matthäi
  729	pmhahn 	Philipp Matthias Hahn
  730	pochu 	Emilio Pozuelo Monfort
  731	pocock 	Daniel Pocock
  732	pollo 	Louis-Philippe Véronneau
  733	pollux 	Pierre Chifflier
  734	porridge 	Marcin Owsiany
  735	pouelle 	Patrick Ouellette
  736	prach 	Prach Pongpanich
  737	praveen 	Praveen Arimbrathodiyil
  738	preining 	Norbert Preining
  739	prh 	Paul Robert Hedderly
  740	pronovic 	Kenneth J. Pronovici
  741	psg 	Peter S. Galbraith
  742	punit 	Punit Agrawal
  743	pvaneynd 	Peter Van Eynde
  744	pyro 	Brian Nelson
  745	qjb 	Jay Berkenbilt
  746	racke 	Stefan Hornburg
  747	rafael 	Rafael Laboissiere
  748	rafl 	Florian Ragwitz
  749	rak 	Ryan Kavanagh
  750	ras 	Russell Stuart
  751	rattusrattus 	Andy Simpkins
  752	rbalint 	Balint Reczey
  753	rbd 	Roland Dreier
  754	rcp 	Ross Peachey
  755	rcw 	Robert Woodcock
  756	reg 	Gregory Colpart
  757	regis 	Regis Boudin
  758	reichel 	Joachim Reichel
  759	rene 	Rene Engelhard
  760	rfehren 	Roland Fehrenbacher
  761	rfrancoise 	Romain Francoise
  762	rhonda 	Rhonda D'Vine
  763	richih 	Richard Michael Hartmann
  764	riku 	Riku Voipio
  765	risko 	RISKO Gergely
  766	rlb 	Rob Browning
  767	rmayorga 	Rene Mayorga
  768	rmayr 	Rene Mayrhofer
  769	rmgolbeck 	Ryan M. Golbeck
  770	rmh 	Robert Millan
  771	robert 	Robert Luberda
  772	robertc 	Robert Collins
  773	robertle 	Robert Lemmen
  774	roberto 	Roberto C. Sanchez
  775	robotux 	Thomas Preud'homme
  776	robster 	Rob Bradford
  777	roktas 	Recai Oktas
  778	roland 	Roland Rosenfeld
  779	ron 	Ron Lee
  780	rosh 	Roger Shimizu
  781	ross 	Ross Burton
  782	rossgammon 	Ross Gammon
  783	rotty 	Andreas Rottmann
  784	rouca 	Bastien Roucariès
  785	rousseau 	Ludovic Rousseau
  786	rover 	Roberto Lumbreras
  787	rra 	Russ Allbery
  788	rrs 	Ritesh Raj Sarraf
  789	rudi 	Roland Marcus Rutschmann
  790	rudy 	Rudy Godoy
  791	rweber 	Rene Weber
  792	sacha 	Alexander Kotelnikov
  793	salve 	Davide G.M. Salvetti
  794	samj 	Sam Johnston
  795	samo 	Sam Clegg
  796	santiago 	Santiago Ruano Rincón
  797	sanvila 	Santiago Vila
  798	sasa 	Attila Szalay
  799	sathieu 	Mathieu Parent
  800	satta 	Sascha Steinbiss
  801	sbadia 	Sebastien Badia
  802	sblondon 	Stéphane Blondon
  803	scheffczyk 	Thomas Scheffczyk
  804	schepler 	Daniel Schepler
  805	schlue 	Michael Schlueter
  806	schmitz 	Michael Schmitz
  807	schultmc 	Michael C. Schultheiss
  808	sdt 	Stuart Teasdale
  809	seamus 	Angel Ramos
  810	seb 	Sebastien Delafond
  811	seb128 	Sebastien Bacher
  812	sebastic 	Sebastiaan Couwenberg
  813	sebastien 	Sébastien Villemot
  814	segre 	Carlo U. Segre
  815	sergiodj 	Sergio Durigan Junior
  816	serpent 	Tomasz Rybak
  817	sesse 	Steinar H. Gunderson
  818	sez 	Serafeim Zanikolas
  819	sf 	Stefan Fritsch
  820	sfrost 	Stephen Frost
  821	sgevatter 	Siegfried-Angel Gevatter Pujals
  822	sgolovan 	Sergei Golovan
  823	sgran 	Stephen Gran
  824	shachar 	Shachar Shemesh
  825	shaka 	Øystein Gisnås
  826	shane 	Shane Wegner
  827	sharkey 	Eric Sharkey
  828	sharky 	Jeremy Lainé
  829	shlomme 	Torsten Marek
  830	sho 	Samuel Hocevar
  831	showard 	Scott Sheridan Howard
  832	shugo 	Shugo Maeda
  833	siretart 	Reinhard Tartler
  834	sjackman 	Shaun Jackman
  835	sjoerd 	Sjoerd Simons
  836	sjr 	Simon Richter
  837	skainz 	Simon Kainz
  838	skitt 	Stephen Kitt
  839	skx 	Steve Kemp
  840	slomo 	Sebastian Dröge
  841	smarenka 	Stephen R. Marenka
  842	smcv 	Simon McVittie
  843	smimram 	Samuel Mimram
  844	smr 	Steven Michael Robbins
  845	smurf 	Matthias Urlichs
  846	sonne 	Soeren Sonnenburg
  847	spa 	Salvador Abreu
  848	spaillard 	Simon Paillard
  849	spamaps 	Clint Byrum
  850	spectra 	Pablo Lorenzzoni
  851	spwhitton 	Sean Whitton
  852	sramacher 	Sebastian Ramacher
  853	sre 	Sebastian Reichel
  854	srittau 	Sebastian Rittau
  855	srivasta 	Manoj Srivastava
  856	srk 	Simon Kelley
  857	ssm 	Stig Sandbeck Mathisen
  858	stapelberg 	Michael Stapelberg
  859	stappers 	Geert Stappers
  860	steele 	David Steele
  861	stefanor 	Stefano Rivera
  862	steinm 	Uwe Steinmann
  863	stender 	Daniel Stender
  864	stephe 	Stephen Leake
  865	steve 	Steve Kostecke
  866	stevegr 	Steve Greenland
  867	stevenc 	Steven Chamberlain
  868	stevenk 	Steve Kowalik
  869	sthibault 	Samuel Thibault
  870	sto 	Sergio Talens-Oliag
  871	stratus 	Gustavo Franco
  872	stuart 	Stuart Prescott
  873	sune 	Sune Vuorela
  874	sunweaver 	Mike Gabriel
  875	sven 	Sven Mueller
  876	sylvestre 	Sylvestre Ledru
  877	synrg 	Ben Armstrong
  878	syq 	YunQiang Su
  879	szlin 	SZ Lin
  880	tach 	Taku Yasui
  881	taffit 	David Prévot
  882	taggart 	Matt Taggart
  883	takaki 	Takaki Taniguchi
  884	tanguy 	Tanguy Ortolo
  885	tao 	David Weinehall
  886	taru 	Masato Taruishi
  887	tassia 	Tássia Camões Araújo
  888	tats 	Tatsuya Kinoshita
  889	tb 	Thomas Bushnell
  890	tbm 	Martin Michlmayr
  891	tehnick 	Boris Pek
  892	terceiro 	Antonio Terceiro
  893	terpstra 	Wesley W. Terpstra
  894	tfheen 	Tollef Fog Heen
  895	tg 	Thorsten Glaser
  896	tgg 	Thomas Girard
  897	thansen 	Tobias Hansen
  898	thb 	Thaddeus H. Black
  899	thep 	Theppitak Karoonboonyanan
  900	thibaut 	Thibaut Jean-Claude Paumard
  901	thierry 	Thierry Randrianiriana
  902	thijs 	Thijs Kinkhorst
  903	thom 	Thom May
  904	thorvald 	Thorvald Natvig
  905	tiago 	Tiago Bortoletto Vaz
  906	tianon 	Tianon Gravi
  907	tijuca 	Carsten Schoenert
  908	tille 	Andreas Tille
  909	timo 	Timo Jyrinki
  910	timr 	Tim Riker
  911	tin 	Agustin Henze
  912	tincho 	Martín Ferrari
  913	tiwe 	Timo Weingärtner
  914	tjaalton 	Timo Aaltonen
  915	tjhukkan 	Teemu Hukkanen
  916	tjrc1 	Tim Cutts
  917	tmancill 	Tony Mancill
  918	toabctl 	Thomas Bechtold
  919	tobald 	Christophe Siraut
  920	tobi 	Tobias Frost
  921	toddy 	Tobias Quathamer
  922	tokkee 	Sebastian Harl
  923	toma 	Tamas Szerb
  924	tomasz 	Tomasz Buchert
  925	tomfa 	Tomas Fasth
  926	toni 	Toni Mueller
  927	torsten 	Torsten Landschoff
  928	tpo 	Tomas Pospisek
  929	tpot 	Timothy Martin Potter
  930	treinen 	Ralf Treinen
  931	troup 	James Troup
  932	troyh 	Troy Heber
  933	tschmidt 	Thomas Schmidt
  934	ttroxell 	Todd Troxell
  935	tvainika 	Tommi Vainikainen
  936	tvincent 	Thomas Vincent
  937	tweber 	Thomas Weber
  938	twerner 	Torsten Werner
  939	tytso 	Theodore Y. Ts'o
  940	tzafrir 	Tzafrir Cohen
  941	ucko 	Aaron M. Ucko
  942	uhoreg 	Hubert Chan
  943	ukleinek 	Uwe Kleine-König
  944	uli 	Ulrich Dangel
  945	ulrike 	Ulrike Uhlig
  946	ultrotter 	Guido Trotter
  947	umlaeute 	IOhannes m zmölnig
  948	unera 	Dmitry Oboukhov
  949	uwe 	Uwe Hermann
  950	vagrant 	Vagrant Cascadian
  951	vanicat 	Remi Vanicat
  952	varun 	Varun Hiremath
  953	vasudev 	Vasudev Sathish Kamath
  954	vcheng 	Vincent Cheng
  955	vdanjean 	Vincent Danjean
  956	venthur 	Bastian Venthur
  957	vicho 	Javier Merino Cacho
  958	viiru 	Arto Jantunen
  959	vince 	Vincent Sanders
  960	vlegout 	Vincent Legout
  961	vorlon 	Steve Langasek
  962	vseva 	Victor Seva
  963	wagner 	Hanno Wagner
  964	waja 	Jan Wagner
  965	waldi 	Bastian Blank
  966	warp10 	Andrea Colangelo
  967	wart 	Wartan Hachaturow
  968	wdg 	Daniel Glassey
  969	weasel 	Peter Palfrader
  970	wehe 	Werner Heuser
  971	wendar 	Allison Randal
  972	werner 	Morten Werner Forsbring
  973	wferi 	Ferenc Wágner
  974	wijnen 	Bas Wijnen
  975	will 	Will Newton
  976	willi 	Willi Mann
  977	willy 	Matthew Wilcox
  978	winnie 	Patrick Winnertz
  979	wookey 	Wookey
  980	wouter 	Wouter Verhelst
  981	wrar 	Andrey Rahmatullin
  982	xaiki 	Niv Sardi-Altivanik
  983	xam 	Max Vozeler
  984	xavier 	Xavier Roche
  985	xluthi 	Xavier Lüthi
  986	xnox 	Dimitri Ledkov
  987	yaegashi 	Takeshi YAEGASHI
  988	yoh 	Yaroslav Halchenko
  989	yooseong 	Yooseong Yang
  990	yoush 	Nikita V. Youshchenko
  991	yyabuki 	Yukiharu Yabuki
  992	zack 	Stefano Zacchiroli
  993	zed 	Zed Pobre
  994	zeha 	Christian Hofstaedtler
  995	zigo 	Thomas Goirand
  996	zinoviev 	Anton Zinoviev
  997	zlatan 	Zlatan Todoric
  998	zobel 	Martin Zobel-Helas
  999	zufus 	Marco Presi
 1000	zugschlus 	Marc Haber
 1001	zumbi 	Hector Oron
