<define-tag pagetitle>DSA-5148-1 chromium</define-tag>
<define-tag report_date>2022-5-25</define-tag>
<define-tag secrefs>CVE-2022-1853 CVE-2022-1854 CVE-2022-1855 CVE-2022-1856 CVE-2022-1857 CVE-2022-1858 CVE-2022-1859 CVE-2022-1860 CVE-2022-1861 CVE-2022-1862 CVE-2022-1863 CVE-2022-1864 CVE-2022-1865 CVE-2022-1866 CVE-2022-1867 CVE-2022-1868 CVE-2022-1869 CVE-2022-1870 CVE-2022-1871 CVE-2022-1872 CVE-2022-1873 CVE-2022-1874 CVE-2022-1875 CVE-2022-1876</define-tag>
<define-tag packages>chromium</define-tag>
<define-tag isvulnerable>yes</define-tag>
<define-tag fixed>yes</define-tag>
<define-tag fixed-section>no</define-tag>

#use wml::debian::security



</dl>
