<define-tag pagetitle>DSA-5089-1 chromium</define-tag>
<define-tag report_date>2022-3-04</define-tag>
<define-tag secrefs>CVE-2022-0789 CVE-2022-0790 CVE-2022-0791 CVE-2022-0792 CVE-2022-0793 CVE-2022-0794 CVE-2022-0795 CVE-2022-0796 CVE-2022-0797 CVE-2022-0798 CVE-2022-0799 CVE-2022-0800 CVE-2022-0801 CVE-2022-0802 CVE-2022-0803 CVE-2022-0804 CVE-2022-0805 CVE-2022-0806 CVE-2022-0807 CVE-2022-0808 CVE-2022-0809</define-tag>
<define-tag packages>chromium</define-tag>
<define-tag isvulnerable>yes</define-tag>
<define-tag fixed>yes</define-tag>
<define-tag fixed-section>no</define-tag>

#use wml::debian::security



</dl>
