<define-tag pagetitle>DSA-5102-1 haproxy</define-tag>
<define-tag report_date>2022-3-13</define-tag>
<define-tag secrefs>CVE-2022-0711</define-tag>
<define-tag packages>haproxy</define-tag>
<define-tag isvulnerable>yes</define-tag>
<define-tag fixed>yes</define-tag>
<define-tag fixed-section>no</define-tag>

#use wml::debian::security



</dl>
