<define-tag pagetitle>DSA-5056-1 strongswan</define-tag>
<define-tag report_date>2022-1-24</define-tag>
<define-tag secrefs>CVE-2021-45079</define-tag>
<define-tag packages>strongswan</define-tag>
<define-tag isvulnerable>yes</define-tag>
<define-tag fixed>yes</define-tag>
<define-tag fixed-section>no</define-tag>

#use wml::debian::security



</dl>
