<define-tag pagetitle>DSA-5134-1 chromium</define-tag>
<define-tag report_date>2022-5-12</define-tag>
<define-tag secrefs>CVE-2022-1633 CVE-2022-1634 CVE-2022-1635 CVE-2022-1636 CVE-2022-1637 CVE-2022-1638 CVE-2022-1639 CVE-2022-1640 CVE-2022-1641</define-tag>
<define-tag packages>chromium</define-tag>
<define-tag isvulnerable>yes</define-tag>
<define-tag fixed>yes</define-tag>
<define-tag fixed-section>no</define-tag>

#use wml::debian::security



</dl>
