<define-tag pagetitle>DSA-5088-1 varnish</define-tag>
<define-tag report_date>2022-3-03</define-tag>
<define-tag secrefs>CVE-2021-36740 CVE-2022-23959 Bug#991040 Bug#1004433</define-tag>
<define-tag packages>varnish</define-tag>
<define-tag isvulnerable>yes</define-tag>
<define-tag fixed>yes</define-tag>
<define-tag fixed-section>no</define-tag>

#use wml::debian::security



</dl>
