<define-tag pagetitle>DSA-5155-1 wpewebkit</define-tag>
<define-tag report_date>2022-6-01</define-tag>
<define-tag secrefs>CVE-2022-26700 CVE-2022-26709 CVE-2022-26716 CVE-2022-26717 CVE-2022-26719 CVE-2022-30293 CVE-2022-30294</define-tag>
<define-tag packages>wpewebkit</define-tag>
<define-tag isvulnerable>yes</define-tag>
<define-tag fixed>yes</define-tag>
<define-tag fixed-section>no</define-tag>

#use wml::debian::security



</dl>
