<define-tag pagetitle>DLA-1912-1 expat</define-tag>
<define-tag report_date>2019-09-06</define-tag>
<define-tag secrefs>CVE-2019-15903</define-tag>
<define-tag packages>expat</define-tag>
<define-tag isvulnerable>yes</define-tag>
<define-tag fixed>yes</define-tag>
<define-tag fixed-section>no</define-tag>

#use wml::debian::security
