<define-tag pagetitle>DLA-1679-1 php5</define-tag>
<define-tag report_date>2019-2-17</define-tag>
<define-tag packages>php5</define-tag>
<define-tag isvulnerable>yes</define-tag>
<define-tag fixed>yes</define-tag>
<define-tag fixed-section>no</define-tag>

#use wml::debian::security

