<define-tag pagetitle>DLA-1966-1 aspell</define-tag>
<define-tag report_date>2019-10-19</define-tag>
<define-tag secrefs>CVE-2019-17544</define-tag>
<define-tag packages>aspell</define-tag>
<define-tag isvulnerable>yes</define-tag>
<define-tag fixed>yes</define-tag>
<define-tag fixed-section>no</define-tag>

#use wml::debian::security

