<define-tag pagetitle>DLA-1953-1 clamav</define-tag>
<define-tag report_date>2019-10-10</define-tag>
<define-tag secrefs>CVE-2019-12625 CVE-2019-12900 Bug#34359</define-tag>
<define-tag packages>clamav</define-tag>
<define-tag isvulnerable>yes</define-tag>
<define-tag fixed>yes</define-tag>
<define-tag fixed-section>no</define-tag>

#use wml::debian::security

