<define-tag pagetitle>DLA-1764-1 mercurial</define-tag>
<define-tag report_date>2019-04-25</define-tag>
<define-tag secrefs>CVE-2019-3902</define-tag>
<define-tag packages>mercurial</define-tag>
<define-tag isvulnerable>yes</define-tag>
<define-tag fixed>yes</define-tag>
<define-tag fixed-section>no</define-tag>

#use wml::debian::security
