<define-tag pagetitle>DLA-634-1 dropbear</define-tag>
<define-tag report_date>2016-9-23</define-tag>
<define-tag secrefs>CVE-2016-7406 CVE-2016-7407</define-tag>
<define-tag packages>dropbear</define-tag>
<define-tag isvulnerable>yes</define-tag>
<define-tag fixed>yes</define-tag>
<define-tag fixed-section>no</define-tag>

#use wml::debian::security

