<define-tag pagetitle>DLA-756-1 imagemagick</define-tag>
<define-tag report_date>2016-12-22</define-tag>
<define-tag secrefs>CVE-2016-7799 CVE-2016-8707 CVE-2016-8862 CVE-2016-8866 CVE-2016-9556 Bug#840437 Bug#845206 Bug#848139 Bug#845634 Bug#845242 Bug#845243 Bug#845195 Bug#845196</define-tag>
<define-tag packages>imagemagick</define-tag>
<define-tag isvulnerable>yes</define-tag>
<define-tag fixed>yes</define-tag>
<define-tag fixed-section>no</define-tag>

#use wml::debian::security

