<define-tag pagetitle>DLA-510-1 p7zip</define-tag>
<define-tag report_date>2016-6-10</define-tag>
<define-tag secrefs>CVE-2016-2335 Bug#824160</define-tag>
<define-tag packages>p7zip</define-tag>
<define-tag isvulnerable>yes</define-tag>
<define-tag fixed>yes</define-tag>
<define-tag fixed-section>no</define-tag>

#use wml::debian::security

