<define-tag pagetitle>DLA-771-1 hdf5</define-tag>
<define-tag report_date>2016-12-31</define-tag>
<define-tag secrefs>CVE-2016-4330 CVE-2016-4331 CVE-2016-4332 CVE-2016-4333 Bug#845301</define-tag>
<define-tag packages>hdf5</define-tag>
<define-tag isvulnerable>yes</define-tag>
<define-tag fixed>yes</define-tag>
<define-tag fixed-section>no</define-tag>

#use wml::debian::security

