<define-tag pagetitle>DLA-745-1 most</define-tag>
<define-tag report_date>2016-12-16</define-tag>
<define-tag secrefs>CVE-2016-1253 Bug#848132</define-tag>
<define-tag packages>most</define-tag>
<define-tag isvulnerable>yes</define-tag>
<define-tag fixed>yes</define-tag>
<define-tag fixed-section>no</define-tag>

#use wml::debian::security

