<define-tag pagetitle>DLA-374-3 cacti</define-tag>
<define-tag report_date>2016-1-4</define-tag>
<define-tag secrefs>CVE-2015-8369 Bug#807599</define-tag>
<define-tag packages>cacti</define-tag>
<define-tag isvulnerable>yes</define-tag>
<define-tag fixed>yes</define-tag>
<define-tag fixed-section>no</define-tag>

#use wml::debian::security

