<define-tag pagetitle>DLA-480-1 nss</define-tag>
<define-tag report_date>2016-5-18</define-tag>
<define-tag secrefs>CVE-2015-7181 CVE-2015-7182 CVE-2016-1938 CVE-2016-1950 CVE-2016-1978 CVE-2016-1979</define-tag>
<define-tag packages>nss</define-tag>
<define-tag isvulnerable>yes</define-tag>
<define-tag fixed>yes</define-tag>
<define-tag fixed-section>no</define-tag>

#use wml::debian::security

