<define-tag pagetitle>DLA-557-1 dietlibc</define-tag>
<define-tag report_date>2016-7-25</define-tag>
<define-tag secrefs>Bug##832169</define-tag>
<define-tag packages>dietlibc</define-tag>
<define-tag isvulnerable>yes</define-tag>
<define-tag fixed>yes</define-tag>
<define-tag fixed-section>no</define-tag>

#use wml::debian::security

