<define-tag pagetitle>DLA-730-1 firefox-esr</define-tag>
<define-tag report_date>2016-12-1</define-tag>
<define-tag secrefs>CVE-2016-5290 CVE-2016-5291 CVE-2016-5296 CVE-2016-5297 CVE-2016-9064 CVE-2016-9066</define-tag>
<define-tag packages>firefox-esr</define-tag>
<define-tag isvulnerable>yes</define-tag>
<define-tag fixed>yes</define-tag>
<define-tag fixed-section>no</define-tag>

#use wml::debian::security

